0,000	1105,966	0,193	-3,583	10,034	2,000	150340,000	27,283	29,966	1,000	1,000
1,000	1106,101	0,199	-3,567	10,051	2,000	150342,000	27,267	29,949	1,000	1,000
2,000	1105,808	0,189	-3,527	9,914	2,000	150344,000	27,227	30,086	1,000	1,000
3,000	1105,959	0,217	-3,484	9,961	2,000	150346,000	27,184	30,039	1,000	1,000
4,000	1105,700	0,185	-3,412	9,938	2,000	150348,000	27,112	30,062	1,000	1,000
5,000	1105,850	0,214	-3,353	9,957	2,000	150350,000	27,053	30,043	1,000	1,000
6,000	1105,653	0,177	-3,340	9,928	2,000	150352,000	27,040	30,072	1,000	1,000
7,000	1105,857	0,209	-3,284	9,870	2,000	150354,000	26,984	30,130	1,000	1,000
8,000	1105,850	0,218	-3,215	9,767	2,000	150356,000	26,915	30,233	1,000	1,000
9,000	1105,813	0,224	-3,156	9,787	2,000	150358,000	26,856	30,213	1,000	1,000
10,000	1106,106	0,199	-3,129	9,741	2,000	150400,000	26,829	30,259	1,000	1,000
11,000	1105,907	0,203	-3,100	9,714	2,000	150402,000	26,800	30,286	1,000	1,000
12,000	1106,213	0,172	-3,044	9,718	2,000	150404,000	26,744	30,282	1,000	1,000
13,000	1106,002	0,201	-2,974	9,740	2,000	150406,000	26,674	30,260	1,000	1,000
14,000	1106,168	0,219	-2,945	9,696	2,000	150408,000	26,645	30,304	1,000	1,000
15,000	1105,804	0,178	-2,905	9,685	2,000	150410,000	26,605	30,315	1,000	1,000
16,000	1106,191	0,201	-2,843	9,593	2,000	150412,000	26,543	30,407	1,000	1,000
17,000	1105,834	0,191	-2,817	9,549	2,000	150414,000	26,517	30,451	1,000	1,000
18,000	1105,931	0,183	-2,774	9,538	2,000	150416,000	26,474	30,462	1,000	1,000
19,000	1106,169	0,180	-2,731	9,430	2,000	150418,000	26,431	30,570	1,000	1,000
20,000	1106,284	0,195	-2,675	9,389	2,000	150420,000	26,375	30,611	1,000	1,000
21,000	1105,795	0,216	-2,662	9,343	2,000	150422,000	26,362	30,657	1,000	1,000
22,000	1105,827	0,183	-2,606	9,334	2,000	150424,000	26,306	30,666	1,000	1,000
23,000	1106,057	0,190	-2,536	9,355	2,000	150426,000	26,236	30,645	1,000	1,000
24,000	1106,196	0,182	-2,507	9,277	2,000	150428,000	26,207	30,723	1,000	1,000
25,000	1105,956	0,229	-2,464	9,236	2,000	150430,000	26,164	30,764	1,000	1,000
26,000	1106,382	0,189	-2,408	9,351	2,000	150432,000	26,108	30,649	1,000	1,000
27,000	1106,109	0,179	-2,363	9,291	2,000	150434,000	26,063	30,709	1,000	1,000
28,000	1105,825	0,216	-2,336	9,277	2,000	150436,000	26,036	30,723	1,000	1,000
29,000	1105,848	0,205	-2,293	9,279	2,000	150438,000	25,993	30,721	1,000	1,000
30,000	1105,833	0,218	-2,264	9,316	2,000	150440,000	25,964	30,684	1,000	1,000
31,000	1105,922	0,194	-2,251	9,348	2,000	150442,000	25,951	30,652	1,000	1,000
32,000	1105,911	0,203	-2,195	9,305	2,000	150444,000	25,895	30,695	1,000	1,000
33,000	1105,962	0,172	-2,165	9,274	2,000	150446,000	25,865	30,726	1,000	1,000
34,000	1106,162	0,219	-2,125	9,328	2,000	150448,000	25,825	30,672	1,000	1,000
35,000	1105,938	0,182	-2,096	9,282	2,000	150450,000	25,796	30,718	1,000	1,000
36,000	1106,085	0,174	-2,053	9,255	2,000	150452,000	25,753	30,745	1,000	1,000
37,000	1106,019	0,226	-2,026	9,241	2,000	150454,000	25,726	30,759	1,000	1,000
38,000	1105,836	0,233	-1,997	9,168	2,000	150456,000	25,697	30,832	1,000	1,000
39,000	1105,898	0,202	-1,984	9,183	2,000	150458,000	25,684	30,817	1,000	1,000
40,000	1105,994	0,170	-1,954	9,122	2,000	150500,000	25,654	30,878	1,000	1,000
41,000	1105,959	0,196	-1,914	9,126	2,000	150502,000	25,614	30,874	1,000	1,000
42,000	1105,928	0,187	-1,898	9,096	2,000	150504,000	25,598	30,904	1,000	1,000
43,000	1106,131	0,220	-1,869	9,114	2,000	150506,000	25,569	30,886	1,000	1,000
44,000	1106,041	0,176	-1,813	9,087	2,000	150508,000	25,513	30,913	1,000	1,000
45,000	1106,301	0,192	-1,783	9,090	2,000	150510,000	25,483	30,910	1,000	1,000
46,000	1106,047	0,201	-1,783	9,076	2,000	150512,000	25,483	30,924	1,000	1,000
47,000	1106,171	0,183	-1,727	9,003	2,000	150514,000	25,427	30,997	1,000	1,000
48,000	1105,943	0,206	-1,698	9,099	2,000	150516,000	25,398	30,901	1,000	1,000
49,000	1106,104	0,181	-1,685	2,991	2,000	150518,000	25,385	31,009	1,000	1,000
50,000	1105,968	0,175	-1,642	2,963	2,000	150520,000	25,342	31,037	1,000	1,000
51,000	1106,109	0,204	-1,615	2,931	2,000	150522,000	25,315	31,069	1,000	1,000
52,000	1106,321	0,188	-1,586	2,936	2,000	150524,000	25,286	31,064	1,000	1,000
53,000	0,247	-0,028	68,700	34,000	2,000	150526,000	-45,000	0,000	0,000	0,000
