0,000	1105,903	0,212	-0,782	40,000	2,000	144203,000	23,782	0,000	1,000	1,000
1,000	1106,133	0,225	-0,753	40,000	2,000	144205,000	23,753	0,000	1,000	1,000
2,000	1106,118	0,251	-0,769	40,000	2,000	144207,000	23,769	0,000	1,000	1,000
3,000	1105,694	0,221	-0,753	40,000	2,000	144209,000	23,753	0,000	1,000	1,000
4,000	1105,755	0,176	-0,769	40,000	2,000	144211,000	23,769	0,000	1,000	1,000
5,000	1105,815	0,176	-0,769	40,000	2,000	144213,000	23,769	0,000	1,000	1,000
6,000	1106,050	0,170	-0,753	40,000	2,000	144215,000	23,753	0,000	1,000	1,000
7,000	1105,967	0,221	-0,753	40,000	2,000	144217,000	23,753	0,000	1,000	1,000
8,000	1106,359	0,261	-0,782	40,000	2,000	144219,000	23,782	0,000	1,000	1,000
9,000	1105,954	0,155	-0,753	40,000	2,000	144221,000	23,753	0,000	1,000	1,000
10,000	1105,775	0,178	-0,769	40,000	2,000	144223,000	23,769	0,000	1,000	1,000
11,000	1106,041	0,257	-0,769	40,000	2,000	144225,000	23,769	0,000	1,000	1,000
12,000	1105,983	0,176	-0,753	40,000	2,000	144227,000	23,753	0,000	1,000	1,000
13,000	1106,217	0,175	-0,769	40,000	2,000	144229,000	23,769	0,000	1,000	1,000
14,000	1106,288	0,218	-0,769	40,000	2,000	144231,000	23,769	0,000	1,000	1,000
15,000	1106,115	0,148	-0,782	40,000	2,000	144233,000	23,782	0,000	1,000	1,000
16,000	1105,958	0,137	-0,753	40,000	2,000	144235,000	23,753	0,000	1,000	1,000
17,000	1105,849	0,219	-0,769	40,000	2,000	144237,000	23,769	0,000	1,000	1,000
18,000	1106,079	0,213	-0,740	40,000	2,000	144239,000	23,740	0,000	1,000	1,000
19,000	1106,069	0,261	-0,740	40,000	2,000	144241,000	23,740	0,000	1,000	1,000
20,000	1106,191	0,157	-0,753	40,000	2,000	144243,000	23,753	0,000	1,000	1,000
21,000	1105,978	0,144	-0,753	40,000	2,000	144245,000	23,753	0,000	1,000	1,000
22,000	1106,003	0,242	-0,740	40,000	2,000	144247,000	23,740	0,000	1,000	1,000
23,000	1106,077	0,179	-0,726	40,000	2,000	144249,000	23,726	0,000	1,000	1,000
24,000	1105,904	0,266	-0,740	40,000	2,000	144251,000	23,740	0,000	1,000	1,000
25,000	1105,692	0,236	-0,697	40,000	2,000	144253,000	23,697	0,000	1,000	1,000
26,000	1105,644	0,196	-0,726	40,000	2,000	144255,000	23,726	0,000	1,000	1,000
27,000	1105,921	0,231	-0,740	40,000	2,000	144257,000	23,740	0,000	1,000	1,000
28,000	1106,014	0,168	-0,713	40,000	2,000	144259,000	23,713	0,000	1,000	1,000
29,000	1105,885	0,209	-0,726	40,000	2,000	144301,000	23,726	0,000	1,000	1,000
30,000	1105,949	0,181	-0,726	40,000	2,000	144303,000	23,726	0,000	1,000	1,000
31,000	1105,936	-0,055	-0,726	40,000	2,000	144305,000	23,726	0,000	1,000	1,000
32,000	0,271	-0,067	68,000	40,000	2,000	144307,000	-45,000	0,000	0,000	0,000
