0,000	1110,811	2,893	68,700	-60,000	2,000	180445,000	-45,000	100,000	1,000	0,000
1,000	1110,696	3,690	0,366	40,000	2,000	180447,000	23,334	0,000	1,000	1,000
2,000	1110,703	3,679	0,366	40,000	2,000	180449,000	23,334	0,000	1,000	1,000
3,000	1110,964	3,692	0,380	40,000	2,000	180451,000	23,320	0,000	1,000	1,000
4,000	1110,740	3,692	0,366	40,000	2,000	180453,000	23,334	0,000	1,000	1,000
5,000	1110,967	3,652	0,366	40,000	2,000	180455,000	23,334	0,000	1,000	1,000
6,000	1110,947	3,636	0,350	40,000	2,000	180457,000	23,350	0,000	1,000	1,000
7,000	1110,751	3,638	0,406	40,000	2,000	180459,000	23,294	0,000	1,000	1,000
8,000	1110,735	3,662	0,380	40,000	2,000	180501,000	23,320	0,000	1,000	1,000
9,000	1110,774	3,679	0,380	40,000	2,000	180503,000	23,320	0,000	1,000	1,000
10,000	1110,853	3,693	0,393	40,000	2,000	180505,000	23,307	0,000	1,000	1,000
11,000	1111,244	3,663	0,406	40,000	2,000	180507,000	23,294	0,000	1,000	1,000
12,000	1110,938	3,658	0,393	40,000	2,000	180509,000	23,307	0,000	1,000	1,000
13,000	1110,991	3,655	0,406	40,000	2,000	180511,000	23,294	0,000	1,000	1,000
14,000	1110,894	3,672	0,406	40,000	2,000	180513,000	23,294	0,000	1,000	1,000
15,000	1110,875	3,667	0,422	40,000	2,000	180515,000	23,278	0,000	1,000	1,000
16,000	1110,866	3,694	0,422	40,000	2,000	180517,000	23,278	0,000	1,000	1,000
17,000	1110,875	3,680	0,422	40,000	2,000	180519,000	23,278	0,000	1,000	1,000
18,000	1110,722	3,669	0,406	40,000	2,000	180521,000	23,294	0,000	1,000	1,000
19,000	1110,604	3,680	0,393	40,000	2,000	180523,000	23,307	0,000	1,000	1,000
20,000	1110,774	3,655	0,422	40,000	2,000	180525,000	23,278	0,000	1,000	1,000
21,000	1110,756	3,690	0,422	40,000	2,000	180527,000	23,278	0,000	1,000	1,000
22,000	1110,696	3,713	0,422	40,000	2,000	180529,000	23,278	0,000	1,000	1,000
23,000	1111,041	3,686	0,436	40,000	2,000	180531,000	23,264	0,000	1,000	1,000
24,000	1111,152	3,644	0,406	40,000	2,000	180533,000	23,294	0,000	1,000	1,000
25,000	1111,313	3,719	0,422	40,000	2,000	180535,000	23,278	0,000	1,000	1,000
26,000	1110,837	3,673	0,422	40,000	2,000	180537,000	23,278	0,000	1,000	1,000
27,000	1111,028	3,677	0,436	40,000	2,000	180539,000	23,264	0,000	1,000	1,000
28,000	1111,095	3,687	0,449	40,000	2,000	180541,000	23,251	0,000	1,000	1,000
29,000	1111,064	3,685	0,406	40,000	2,000	180543,000	23,294	0,000	1,000	1,000
30,000	1110,828	3,699	0,436	40,000	2,000	180545,000	23,264	0,000	1,000	1,000
31,000	1110,746	3,674	0,436	40,000	2,000	180547,000	23,264	0,000	1,000	1,000
32,000	1110,874	3,717	0,422	40,000	2,000	180549,000	23,278	0,000	1,000	1,000
33,000	1110,741	3,712	0,436	40,000	2,000	180551,000	23,264	0,000	1,000	1,000
34,000	1111,200	3,705	0,422	40,000	2,000	180553,000	23,278	0,000	1,000	1,000
35,000	1110,637	3,675	0,436	40,000	2,000	180555,000	23,264	0,000	1,000	1,000
36,000	1110,843	3,710	0,422	40,000	2,000	180557,000	23,278	0,000	1,000	1,000
37,000	1110,943	3,711	0,465	40,000	2,000	180559,000	23,235	0,000	1,000	1,000
38,000	1110,779	3,720	0,436	40,000	2,000	180601,000	23,264	0,000	1,000	1,000
39,000	1110,875	3,701	0,436	40,000	2,000	180603,000	23,264	0,000	1,000	1,000
40,000	1110,812	3,690	0,449	40,000	2,000	180605,000	23,251	0,000	1,000	1,000
41,000	1110,666	3,708	0,436	40,000	2,000	180607,000	23,264	0,000	1,000	1,000
42,000	1110,683	3,684	0,449	40,000	2,000	180609,000	23,251	0,000	1,000	1,000
43,000	1110,881	3,720	0,436	40,000	2,000	180611,000	23,264	0,000	1,000	1,000
44,000	1110,634	3,718	0,436	40,000	2,000	180613,000	23,264	0,000	1,000	1,000
45,000	1110,745	3,729	0,478	40,000	2,000	180615,000	23,222	0,000	1,000	1,000
46,000	1110,833	3,740	0,449	40,000	2,000	180617,000	23,251	0,000	1,000	1,000
47,000	0,120	-0,151	68,700	40,000	2,000	180619,000	-45,000	0,000	0,000	0,000
