0,000	1105,738	0,198	-0,686	40,000	2,000	144036,000	23,686	0,000	1,000	1,000
1,000	1105,937	0,174	-0,673	40,000	2,000	144038,000	23,673	0,000	1,000	1,000
2,000	1105,926	0,275	-0,702	40,000	2,000	144040,000	23,702	0,000	1,000	1,000
3,000	1105,994	0,220	-0,702	40,000	2,000	144042,000	23,702	0,000	1,000	1,000
4,000	1106,108	0,177	-0,716	40,000	2,000	144044,000	23,716	0,000	1,000	1,000
5,000	1105,923	0,220	-0,702	40,000	2,000	144046,000	23,702	0,000	1,000	1,000
6,000	1105,957	0,228	-0,729	40,000	2,000	144048,000	23,729	0,000	1,000	1,000
7,000	1106,184	0,131	-0,729	40,000	2,000	144050,000	23,729	0,000	1,000	1,000
8,000	1106,009	0,149	-0,742	40,000	2,000	144052,000	23,742	0,000	1,000	1,000
9,000	1106,197	0,211	-0,758	40,000	2,000	144054,000	23,758	0,000	1,000	1,000
10,000	1106,123	0,161	-0,742	40,000	2,000	144056,000	23,742	0,000	1,000	1,000
11,000	1105,974	0,216	-0,716	40,000	2,000	144058,000	23,716	0,000	1,000	1,000
12,000	1105,807	0,142	-0,742	40,000	2,000	144100,000	23,742	0,000	1,000	1,000
13,000	1106,094	0,153	-0,716	40,000	2,000	144102,000	23,716	0,000	1,000	1,000
14,000	1105,914	0,211	-0,758	40,000	2,000	144104,000	23,758	0,000	1,000	1,000
15,000	1106,193	0,220	-0,742	40,000	2,000	144106,000	23,742	0,000	1,000	1,000
16,000	1105,768	0,228	-0,742	40,000	2,000	144108,000	23,742	0,000	1,000	1,000
17,000	1105,746	0,222	-0,742	40,000	2,000	144110,000	23,742	0,000	1,000	1,000
18,000	1105,691	0,224	-0,742	40,000	2,000	144112,000	23,742	0,000	1,000	1,000
19,000	1105,930	0,178	-0,742	40,000	2,000	144114,000	23,742	0,000	1,000	1,000
20,000	1105,908	0,260	-0,716	40,000	2,000	144116,000	23,716	0,000	1,000	1,000
21,000	1105,798	0,176	-0,758	40,000	2,000	144118,000	23,758	0,000	1,000	1,000
22,000	1105,783	0,131	-0,758	40,000	2,000	144120,000	23,758	0,000	1,000	1,000
23,000	1105,719	0,223	-0,758	40,000	2,000	144122,000	23,758	0,000	1,000	1,000
24,000	1106,044	0,128	-0,742	40,000	2,000	144124,000	23,742	0,000	1,000	1,000
25,000	1105,977	0,236	-0,758	40,000	2,000	144126,000	23,758	0,000	1,000	1,000
26,000	1106,138	0,231	-0,772	40,000	2,000	144128,000	23,772	0,000	1,000	1,000
27,000	1106,340	0,148	-0,758	40,000	2,000	144130,000	23,758	0,000	1,000	1,000
28,000	1106,002	0,228	-0,742	40,000	2,000	144132,000	23,742	0,000	1,000	1,000
29,000	1105,952	0,252	-0,742	40,000	2,000	144134,000	23,742	0,000	1,000	1,000
30,000	1105,922	0,228	-0,758	40,000	2,000	144136,000	23,758	0,000	1,000	1,000
31,000	1106,284	0,209	-0,772	40,000	2,000	144138,000	23,772	0,000	1,000	1,000
32,000	0,286	-0,034	68,000	40,000	2,000	144140,000	-45,000	0,000	0,000	0,000
