0,000	1105,855	0,200	-1,674	40,000	2,000	180801,000	25,374	0,000	1,000	1,000
1,000	1106,165	0,220	-1,687	40,000	2,000	180803,000	25,387	0,000	1,000	1,000
2,000	1105,976	0,183	-1,674	40,000	2,000	180805,000	25,374	0,000	1,000	1,000
3,000	1105,932	0,228	-1,674	40,000	2,000	180807,000	25,374	0,000	1,000	1,000
4,000	1105,941	0,191	-1,674	40,000	2,000	180809,000	25,374	0,000	1,000	1,000
5,000	1106,190	0,224	-1,660	40,000	2,000	180811,000	25,360	0,000	1,000	1,000
6,000	1105,950	0,209	-1,674	40,000	2,000	180813,000	25,374	0,000	1,000	1,000
7,000	1105,863	0,213	-1,687	40,000	2,000	180815,000	25,387	0,000	1,000	1,000
8,000	1106,094	0,196	-1,660	40,000	2,000	180817,000	25,360	0,000	1,000	1,000
9,000	1105,885	0,201	-1,674	40,000	2,000	180819,000	25,374	0,000	1,000	1,000
10,000	1106,121	0,211	-1,674	40,000	2,000	180821,000	25,374	0,000	1,000	1,000
11,000	1105,935	0,200	-1,687	40,000	2,000	180823,000	25,387	0,000	1,000	1,000
12,000	1105,955	0,169	-1,674	40,000	2,000	180825,000	25,374	0,000	1,000	1,000
13,000	1106,117	0,221	-1,674	40,000	2,000	180827,000	25,374	0,000	1,000	1,000
14,000	1105,966	0,179	-1,687	40,000	2,000	180829,000	25,387	0,000	1,000	1,000
15,000	1106,010	0,205	-1,674	40,000	2,000	180831,000	25,374	0,000	1,000	1,000
16,000	1105,717	0,208	-1,687	40,000	2,000	180833,000	25,387	0,000	1,000	1,000
17,000	1105,754	0,204	-1,660	40,000	2,000	180835,000	25,360	0,000	1,000	1,000
18,000	1106,225	0,205	-1,674	40,000	2,000	180837,000	25,374	0,000	1,000	1,000
19,000	1105,841	0,210	-1,660	40,000	2,000	180839,000	25,360	0,000	1,000	1,000
20,000	1105,938	0,210	-1,687	40,000	2,000	180841,000	25,387	0,000	1,000	1,000
21,000	1106,052	0,190	-1,674	40,000	2,000	180843,000	25,374	0,000	1,000	1,000
22,000	1106,142	0,247	-1,687	40,000	2,000	180845,000	25,387	0,000	1,000	1,000
23,000	1105,846	0,216	-1,687	40,000	2,000	180847,000	25,387	0,000	1,000	1,000
24,000	1106,032	0,218	-1,674	40,000	2,000	180849,000	25,374	0,000	1,000	1,000
25,000	1105,766	0,228	-1,687	40,000	2,000	180851,000	25,387	0,000	1,000	1,000
26,000	1105,710	0,196	-1,674	40,000	2,000	180853,000	25,374	0,000	1,000	1,000
27,000	1105,702	0,198	-1,687	40,000	2,000	180855,000	25,387	0,000	1,000	1,000
28,000	1105,783	0,209	-1,674	40,000	2,000	180857,000	25,374	0,000	1,000	1,000
29,000	1105,710	0,227	-1,687	40,000	2,000	180859,000	25,387	0,000	1,000	1,000
30,000	1106,258	0,176	-1,687	40,000	2,000	180901,000	25,387	0,000	1,000	1,000
31,000	1106,056	0,212	-1,660	40,000	2,000	180903,000	25,360	0,000	1,000	1,000
32,000	1105,908	-0,013	-1,660	40,000	2,000	180905,000	25,360	0,000	1,000	1,000
33,000	0,264	0,001	68,700	40,000	2,000	180907,000	-45,000	0,000	0,000	0,000
