0,000	1106,139	0,427	0,294	40,000	2,000	133311,000	23,406	0,000	1,000	1,000
1,000	1106,238	0,399	0,294	40,000	2,000	133313,000	23,406	0,000	1,000	1,000
2,000	1106,048	0,391	0,308	40,000	2,000	133315,000	23,392	0,000	1,000	1,000
3,000	1105,849	0,386	0,324	40,000	2,000	133317,000	23,376	0,000	1,000	1,000
4,000	1106,185	0,412	0,308	40,000	2,000	133319,000	23,392	0,000	1,000	1,000
5,000	1106,247	0,386	0,294	40,000	2,000	133321,000	23,406	0,000	1,000	1,000
6,000	1105,798	0,412	0,294	40,000	2,000	133323,000	23,406	0,000	1,000	1,000
7,000	1106,163	0,386	0,281	40,000	2,000	133325,000	23,419	0,000	1,000	1,000
8,000	1106,298	0,363	0,308	40,000	2,000	133327,000	23,392	0,000	1,000	1,000
9,000	1106,230	0,380	0,281	40,000	2,000	133329,000	23,419	0,000	1,000	1,000
10,000	1106,002	0,384	0,294	40,000	2,000	133331,000	23,406	0,000	1,000	1,000
11,000	1105,901	0,419	0,281	40,000	2,000	133333,000	23,419	0,000	1,000	1,000
12,000	1106,056	0,394	0,281	40,000	2,000	133335,000	23,419	0,000	1,000	1,000
13,000	1106,316	0,357	0,294	40,000	2,000	133337,000	23,406	0,000	1,000	1,000
14,000	1106,299	0,396	0,281	40,000	2,000	133339,000	23,419	0,000	1,000	1,000
15,000	1106,010	0,377	0,281	40,000	2,000	133341,000	23,419	0,000	1,000	1,000
16,000	1106,216	0,393	0,281	40,000	2,000	133343,000	23,419	0,000	1,000	1,000
17,000	1106,115	0,364	0,294	40,000	2,000	133345,000	23,406	0,000	1,000	1,000
18,000	1105,992	0,399	0,267	40,000	2,000	133347,000	23,433	0,000	1,000	1,000
19,000	1105,833	0,389	0,267	40,000	2,000	133349,000	23,433	0,000	1,000	1,000
20,000	1105,829	0,355	0,294	40,000	2,000	133351,000	23,406	0,000	1,000	1,000
21,000	1105,755	0,368	0,308	40,000	2,000	133353,000	23,392	0,000	1,000	1,000
22,000	1106,289	0,371	0,281	40,000	2,000	133355,000	23,419	0,000	1,000	1,000
23,000	1105,995	0,363	0,294	40,000	2,000	133357,000	23,406	0,000	1,000	1,000
24,000	1106,086	0,379	0,294	40,000	2,000	133359,000	23,406	0,000	1,000	1,000
25,000	1105,912	0,393	0,324	40,000	2,000	133401,000	23,376	0,000	1,000	1,000
26,000	1106,053	0,387	0,308	40,000	2,000	133403,000	23,392	0,000	1,000	1,000
27,000	1106,265	0,396	0,308	40,000	2,000	133405,000	23,392	0,000	1,000	1,000
28,000	1106,007	0,367	0,324	40,000	2,000	133407,000	23,376	0,000	1,000	1,000
29,000	1105,610	0,365	0,337	40,000	2,000	133409,000	23,363	0,000	1,000	1,000
30,000	1106,274	0,366	0,294	40,000	2,000	133411,000	23,406	0,000	1,000	1,000
31,000	1106,082	0,388	0,337	40,000	2,000	133413,000	23,363	0,000	1,000	1,000
32,000	1106,065	0,377	0,324	40,000	2,000	133415,000	23,376	0,000	1,000	1,000
33,000	1106,077	0,383	0,324	40,000	2,000	133417,000	23,376	0,000	1,000	1,000
34,000	1106,129	0,408	0,308	40,000	2,000	133419,000	23,392	0,000	1,000	1,000
35,000	1106,322	0,362	0,308	40,000	2,000	133421,000	23,392	0,000	1,000	1,000
36,000	1105,953	0,393	0,337	40,000	2,000	133423,000	23,363	0,000	1,000	1,000
37,000	1105,907	0,367	0,308	40,000	2,000	133425,000	23,392	0,000	1,000	1,000
38,000	1106,025	0,390	0,324	40,000	2,000	133427,000	23,376	0,000	1,000	1,000
39,000	1106,084	0,374	0,350	40,000	2,000	133429,000	23,350	0,000	1,000	1,000
40,000	1105,942	0,368	0,350	40,000	2,000	133431,000	23,350	0,000	1,000	1,000
41,000	1106,023	0,353	0,308	40,000	2,000	133433,000	23,392	0,000	1,000	1,000
42,000	1105,713	0,380	0,364	40,000	2,000	133435,000	23,336	0,000	1,000	1,000
43,000	1106,000	0,408	0,350	40,000	2,000	133437,000	23,350	0,000	1,000	1,000
44,000	1105,831	0,363	0,337	40,000	2,000	133439,000	23,363	0,000	1,000	1,000
45,000	1106,068	0,370	0,337	40,000	2,000	133441,000	23,363	0,000	1,000	1,000
46,000	1106,100	0,358	0,364	40,000	2,000	133443,000	23,336	0,000	1,000	1,000
47,000	1106,280	0,411	0,350	40,000	2,000	133445,000	23,350	0,000	1,000	1,000
48,000	1105,897	0,372	0,337	40,000	2,000	133447,000	23,363	0,000	1,000	1,000
49,000	1106,152	0,405	0,350	40,000	2,000	133449,000	23,350	0,000	1,000	1,000
50,000	1106,146	0,367	0,350	40,000	2,000	133451,000	23,350	0,000	1,000	1,000
51,000	1106,142	0,383	0,350	40,000	2,000	133453,000	23,350	0,000	1,000	1,000
52,000	1106,080	0,385	0,350	40,000	2,000	133455,000	23,350	0,000	1,000	1,000
53,000	1105,858	0,377	0,337	40,000	2,000	133457,000	23,363	0,000	1,000	1,000
54,000	1105,862	0,350	0,380	40,000	2,000	133459,000	23,320	0,000	1,000	1,000
55,000	1106,147	0,395	0,380	40,000	2,000	133501,000	23,320	0,000	1,000	1,000
56,000	1106,087	0,362	0,364	40,000	2,000	133503,000	23,336	0,000	1,000	1,000
57,000	1106,092	0,409	0,380	40,000	2,000	133505,000	23,320	0,000	1,000	1,000
58,000	1106,114	0,358	0,380	40,000	2,000	133507,000	23,320	0,000	1,000	1,000
59,000	1106,150	0,375	0,380	40,000	2,000	133509,000	23,320	0,000	1,000	1,000
60,000	1105,816	-0,042	0,393	40,000	2,000	133511,000	23,307	0,000	1,000	0,000
61,000	0,293	-0,008	68,700	40,000	2,000	133513,000	-45,000	0,000	0,000	0,000
