0,000	1105,674	0,157	-0,590	40,000	2,000	143505,000	23,590	0,000	1,000	1,000
1,000	1105,933	0,219	-0,590	40,000	2,000	143507,000	23,590	0,000	1,000	1,000
2,000	1106,053	0,229	-0,590	40,000	2,000	143509,000	23,590	0,000	1,000	1,000
3,000	1105,600	0,152	-0,558	40,000	2,000	143511,000	23,558	0,000	1,000	1,000
4,000	1106,105	0,236	-0,545	40,000	2,000	143513,000	23,545	0,000	1,000	1,000
5,000	1106,106	0,177	-0,577	40,000	2,000	143515,000	23,577	0,000	1,000	1,000
6,000	1105,887	0,148	-0,558	40,000	2,000	143517,000	23,558	0,000	1,000	1,000
7,000	1106,127	0,134	-0,545	40,000	2,000	143519,000	23,545	0,000	1,000	1,000
8,000	1105,658	0,158	-0,558	40,000	2,000	143521,000	23,558	0,000	1,000	1,000
9,000	1105,747	0,192	-0,545	40,000	2,000	143523,000	23,545	0,000	1,000	1,000
10,000	1106,344	0,250	-0,545	40,000	2,000	143525,000	23,545	0,000	1,000	1,000
11,000	1105,838	0,214	-0,545	40,000	2,000	143527,000	23,545	0,000	1,000	1,000
12,000	1106,207	0,225	-0,545	40,000	2,000	143529,000	23,545	0,000	1,000	1,000
13,000	1106,043	0,149	-0,531	40,000	2,000	143531,000	23,531	0,000	1,000	1,000
14,000	1106,173	0,248	-0,515	40,000	2,000	143533,000	23,515	0,000	1,000	1,000
15,000	1105,691	0,142	-0,515	40,000	2,000	143535,000	23,515	0,000	1,000	1,000
16,000	1106,200	0,258	-0,515	40,000	2,000	143537,000	23,515	0,000	1,000	1,000
17,000	1105,693	0,261	-0,489	40,000	2,000	143539,000	23,489	0,000	1,000	1,000
18,000	1105,887	0,195	-0,475	40,000	2,000	143541,000	23,475	0,000	1,000	1,000
19,000	1105,752	0,193	-0,515	40,000	2,000	143543,000	23,515	0,000	1,000	1,000
20,000	1105,610	0,162	-0,502	40,000	2,000	143545,000	23,502	0,000	1,000	1,000
21,000	1106,170	0,224	-0,515	40,000	2,000	143547,000	23,515	0,000	1,000	1,000
22,000	1106,025	0,128	-0,531	40,000	2,000	143549,000	23,531	0,000	1,000	1,000
23,000	1105,936	0,236	-0,515	40,000	2,000	143551,000	23,515	0,000	1,000	1,000
24,000	1105,866	0,150	-0,545	40,000	2,000	143553,000	23,545	0,000	1,000	1,000
25,000	1105,678	0,138	-0,545	40,000	2,000	143555,000	23,545	0,000	1,000	1,000
26,000	1105,855	0,259	-0,531	40,000	2,000	143557,000	23,531	0,000	1,000	1,000
27,000	1105,713	0,230	-0,545	40,000	2,000	143559,000	23,545	0,000	1,000	1,000
28,000	1106,065	0,187	-0,531	40,000	2,000	143601,000	23,531	0,000	1,000	1,000
29,000	1105,887	0,210	-0,545	40,000	2,000	143603,000	23,545	0,000	1,000	1,000
30,000	1105,920	0,244	-0,545	40,000	2,000	143605,000	23,545	0,000	1,000	1,000
31,000	1105,820	0,161	-0,545	40,000	2,000	143607,000	23,545	0,000	1,000	1,000
32,000	1106,066	0,222	-0,531	40,000	2,000	143609,000	23,531	0,000	1,000	1,000
33,000	1106,235	0,245	-0,531	40,000	2,000	143611,000	23,531	0,000	1,000	1,000
34,000	1106,050	0,140	-0,531	40,000	2,000	143613,000	23,531	0,000	1,000	1,000
35,000	1105,745	0,254	-0,577	40,000	2,000	143615,000	23,577	0,000	1,000	1,000
36,000	1105,749	0,172	-0,545	40,000	2,000	143617,000	23,545	0,000	1,000	1,000
37,000	1105,882	0,133	-0,545	40,000	2,000	143619,000	23,545	0,000	1,000	1,000
38,000	1105,812	0,219	-0,545	40,000	2,000	143621,000	23,545	0,000	1,000	1,000
39,000	1105,787	0,211	-0,558	40,000	2,000	143623,000	23,558	0,000	1,000	1,000
40,000	1105,906	0,244	-0,558	40,000	2,000	143625,000	23,558	0,000	1,000	1,000
41,000	1106,032	0,221	-0,545	40,000	2,000	143627,000	23,545	0,000	1,000	1,000
42,000	1105,912	0,169	-0,545	40,000	2,000	143629,000	23,545	0,000	1,000	1,000
43,000	1105,986	0,231	-0,545	40,000	2,000	143631,000	23,545	0,000	1,000	1,000
44,000	1105,922	0,187	-0,515	40,000	2,000	143633,000	23,515	0,000	1,000	1,000
45,000	1105,650	0,246	-0,515	40,000	2,000	143635,000	23,515	0,000	1,000	1,000
46,000	1106,101	0,139	-0,531	40,000	2,000	143637,000	23,531	0,000	1,000	1,000
47,000	1106,165	0,239	-0,531	40,000	2,000	143639,000	23,531	0,000	1,000	1,000
48,000	1106,054	0,188	-0,531	40,000	2,000	143641,000	23,531	0,000	1,000	1,000
49,000	1105,762	0,153	-0,531	40,000	2,000	143643,000	23,531	0,000	1,000	1,000
50,000	1106,079	0,151	-0,545	40,000	2,000	143645,000	23,545	0,000	1,000	1,000
51,000	1105,598	0,186	-0,502	40,000	2,000	143647,000	23,502	0,000	1,000	1,000
52,000	0,282	-0,086	68,000	40,000	2,000	143649,000	-45,000	0,000	0,000	0,000
