0,000	1105,751	0,180	1,189	3,246	2,000	144235,000	22,511	36,754	1,000	1,000
1,000	1105,472	0,194	1,189	3,246	2,000	144237,000	22,511	36,754	1,000	1,000
2,000	1105,600	0,216	1,189	3,232	2,000	144239,000	22,511	36,768	1,000	1,000
3,000	1105,513	0,183	1,175	3,232	2,000	144241,000	22,525	36,768	1,000	1,000
4,000	1105,683	0,177	1,189	3,218	2,000	144243,000	22,511	36,782	1,000	1,000
5,000	1105,310	0,190	1,189	3,290	2,000	144245,000	22,511	36,710	1,000	1,000
6,000	1105,837	0,181	1,202	3,301	2,000	144247,000	22,498	36,699	1,000	1,000
7,000	1105,729	0,201	1,202	3,262	2,000	144249,000	22,498	36,738	1,000	1,000
8,000	1105,710	0,175	1,218	3,304	2,000	144251,000	22,482	36,696	1,000	1,000
9,000	1105,549	0,175	1,202	3,276	2,000	144253,000	22,498	36,724	1,000	1,000
10,000	1105,528	0,197	1,189	3,290	2,000	144255,000	22,511	36,710	1,000	1,000
11,000	1105,733	0,163	1,189	3,328	2,000	144257,000	22,511	36,672	1,000	1,000
12,000	1105,409	0,205	1,202	3,345	2,000	144259,000	22,498	36,655	1,000	1,000
13,000	1105,511	0,176	1,231	3,346	2,000	144301,000	22,469	36,654	1,000	1,000
14,000	1105,560	0,194	1,202	3,359	2,000	144303,000	22,498	36,641	1,000	1,000
15,000	1105,404	0,200	1,218	3,372	2,000	144305,000	22,482	36,628	1,000	1,000
16,000	1105,381	0,206	1,202	3,386	2,000	144307,000	22,498	36,614	1,000	1,000
17,000	1105,557	0,187	1,218	3,345	2,000	144309,000	22,482	36,655	1,000	1,000
18,000	1105,550	0,185	1,202	3,427	2,000	144311,000	22,498	36,573	1,000	1,000
19,000	1105,534	0,212	1,189	3,455	2,000	144313,000	22,511	36,545	1,000	1,000
20,000	1105,556	0,198	1,202	3,400	2,000	144315,000	22,498	36,600	1,000	1,000
21,000	1105,381	0,181	1,202	3,441	2,000	144317,000	22,498	36,559	1,000	1,000
22,000	1105,802	0,180	1,218	3,456	2,000	144319,000	22,482	36,544	1,000	1,000
23,000	1105,692	0,214	1,231	3,429	2,000	144321,000	22,469	36,571	1,000	1,000
24,000	1105,806	0,218	1,218	3,470	2,000	144323,000	22,482	36,530	1,000	1,000
25,000	1105,758	0,186	1,231	3,401	2,000	144325,000	22,469	36,599	1,000	1,000
26,000	1105,549	0,176	1,231	3,401	2,000	144327,000	22,469	36,599	1,000	1,000
27,000	1105,571	0,162	1,231	3,456	2,000	144329,000	22,469	36,544	1,000	1,000
28,000	1105,698	0,175	1,231	3,487	2,000	144331,000	22,469	36,513	1,000	1,000
29,000	1105,193	0,195	1,245	3,487	2,000	144333,000	22,455	36,513	1,000	1,000
30,000	1105,655	0,201	1,218	3,525	2,000	144335,000	22,482	36,475	1,000	1,000
31,000	1105,302	0,207	1,261	3,488	2,000	144337,000	22,439	36,512	1,000	1,000
32,000	1105,640	0,157	1,245	3,584	2,000	144339,000	22,455	36,416	1,000	1,000
33,000	1105,589	0,166	1,245	3,571	2,000	144341,000	22,455	36,429	1,000	1,000
34,000	1105,669	0,225	1,245	3,543	2,000	144343,000	22,455	36,457	1,000	1,000
35,000	1105,440	0,216	1,261	3,571	2,000	144345,000	22,439	36,429	1,000	1,000
36,000	1105,494	0,204	1,261	3,557	2,000	144347,000	22,439	36,443	1,000	1,000
37,000	1105,341	0,172	1,245	3,528	2,000	144349,000	22,455	36,472	1,000	1,000
38,000	1105,763	0,160	1,245	3,584	2,000	144351,000	22,455	36,416	1,000	1,000
39,000	1105,695	0,173	1,245	3,571	2,000	144353,000	22,455	36,429	1,000	1,000
40,000	1105,436	0,210	1,245	3,528	2,000	144355,000	22,455	36,472	1,000	1,000
41,000	0,258	0,025	68,700	40,000	2,000	144357,000	-45,000	0,000	0,000	0,000
